[
  {
    "description": "(1a42c7e) Merged in go-bitbucket-hosted-private-module-update (pull request #3)\n\nNow also supporting private go modules hosted on BitBucket and GitLab",
    "type": "patch"
  }
]